{
	"GameData": {
		"screenTitle": "Diamond Platformer",
		"maxStringSize": 50,
		"frameCapOn": true,
		"period": 17,
		"frameMax": 3000,
		"maxFrames": 100,
		"username": "jpeterk",
		"viewPort": {
			"posX": 0.0,
			"posY": 0.0,
			"width": 1000,
			"height": 480,
			"windowXpos": 100,
			"windowYpos": 100,
			"fullscreen": false
		},
		"font": {
			"file": "fonts/arial.ttf",
			"size": 14,
			"red": 0,
			"green": 0,
			"blue": 0,
			"alpha": 0
		},
		"playState": {
			"bullet": {
				"name": "bullet",
				"maxDistance": 150.0,
				"width": 24,
				"height": 24,
				"power": 25,
				"frameInterval": 30,
				"poolInterval": 500
			},
			"chunk": {
				"maxDistance": 200.0,
				"size": 3
			},
			"world": {
				"width": 2000,
				"height": 480
			},
			"worlds": {
				"SkyMountains": {
					"factor": 3,
					"width": 1000,
					"height": 480
				}
			},
			"hud": {
				"posX": 775,
				"posY": 10,
				"width": 200,
				"height": 210
			},
			"animatedWorlds":{
				"WaterfallCliff": {
					"factor": 1,
					"width": 1000,
					"height": 480,
					"frameInterval": 128
				}
			},
			"gameObjects": {
				"Enemy": {
					"num": 5,
					"velX": 1.0,
					"velY": 0.0,
					"width": 64,
					"height": 64,
					"flipped": true,
					"frameInterval": 64,
					"health": 150,
					"bulletXOffset": 35.0,
					"bulletYOffset": 32.0
				},
				"Nemesis": {
					"name": "Nemesis",
					"posX": 800.0,
					"posY": 300.0,
					"velX": 1.0,
					"velY": 0.0,
					"width": 64,
					"height": 64,
					"flipped": false,
					"frameInterval": 64,
					"health": 300
				},
				"Sword": {
					"name": "sword",
					"power": 38,
					"posX": 1700.0,
					"posY": 363.0,
					"velX": 0.0,
					"velY": 0.0,
					"width": 64,
					"height": 64,
					"flipped": false,
					"frameInterval": 64
				},
				"Spear": {
					"name": "spear",
					"power": 45,
					"posX": 1800.0,
					"posY": 363.0,
					"velX": 0.0,
					"velY": 0.0,
					"width": 64,
					"height": 64,
					"flipped": false,
					"frameInterval": 64
				},
				"BattleAxe": {
					"name": "battleAxe",
					"power": 55,
					"posX": 1700.0,
					"posY": 363.0,
					"velX": 0.0,
					"velY": 0.0,
					"width": 64,
					"height": 64,
					"flipped": false,
					"frameInterval": 96
				},
				"Glaive": {
					"name": "glaive",
					"power": 60,
					"posX": 1800.0,
					"posY": 363.0,
					"velX": 0.0,
					"velY": 0.0,
					"width": 64,
					"height": 64,
					"flipped": false,
					"frameInterval": 128
				},
				"Scimitar": {
					"name": "scimitar",
					"power": 50,
					"posX": 1700.0,
					"posY": 363.0,
					"velX": 0.0,
					"velY": 0.0,
					"width": 64,
					"height": 64,
					"flipped": false,
					"frameInterval": 32
				},
				"Spindar": {
					"name": "spindar",
					"power": 70,
					"posX": 1800.0,
					"posY": 363.0,
					"velX": 0.0,
					"velY": 0.0,
					"width": 64,
					"height": 64,
					"flipped": false,
					"frameInterval": 64
				},
				"SmallDiamond": {
					"name": "sDiamond",
					"velX": 0.0,
					"velY": 0.5,
					"width": 32,
					"height": 32
				},
				"MediumDiamond": {
					"name": "mDiamond",
					"velX": 0.0,
					"velY": 1.5,
					"width": 64,
					"height": 64
				},
				"LargeDiamond": {
					"name": "lDiamond",
					"velX": 0.0,
					"velY": 2.5,
					"width": 96,
					"height": 96
				}
			},
			"textures": {
				"torchGuy": {
					"id": "torch_guy",
					"path": "assets/TorchGuy/TorchGuy_SpriteSheet.png",
					"rows": 5,
					"cols": 8
				},
				"nemesis": {
					"id": "nemesis",
					"path": "assets/Nemesis/NemesisPA_SpriteSheet.png",
					"rows": 5,
					"cols": 8
				},
				"sword": {
					"id": "sword",
					"path": "assets/Nemesis/Sword_SpriteSheet.png",
					"rows": 5,
					"cols": 8
				},
				"spear": {
					"id": "spear",
					"path": "assets/Nemesis/Spear_SpriteSheet.png",
					"rows": 5,
					"cols": 8
				},
				"battleAxe": {
					"id": "battleAxe",
					"path": "assets/Nemesis/BattleAxe_SpriteSheet.png",
					"rows": 5,
					"cols": 8
				},
				"glaive": {
					"id": "glaive",
					"path": "assets/Nemesis/Glaive_SpriteSheet.png",
					"rows": 5,
					"cols": 8
				},
				"scimitar": {
					"id": "scimitar",
					"path": "assets/Nemesis/Scimitar_SpriteSheet.png",
					"rows": 5,
					"cols": 8
				},
				"spindar": {
					"id": "spindar",
					"path": "assets/Nemesis/Spindar_SpriteSheet.png",
					"rows": 5,
					"cols": 8
				},
				"bullet": {
					"id": "bullet",
					"path": "assets/TorchGuy/bullet_SpriteSheet.png",
					"rows": 2,
					"cols": 3
				},
				"skyMountains": {
					"id": "background",
					"path": "assets/Scene/background.png"
				},
				"waterfallCliff": {
					"id": "midground",
					"path": "assets/Scene/midground.png",
					"rows": 1,
					"cols": 4
				},
				"BottomPlatform": {
					"id": "botPlatform",
					"path": "assets/Scene/BottomPlatform.png",
					"width": 125,
					"height": 57,
					"collisionHeight": 5,
					"collisionWidth": 10
				},
				"FloatingPlatform": {
					"id": "floatPlatform",
					"path": "assets/Scene/FloatingPlatform.png",
					"width": 125,
					"height": 27,
					"collisionHeight": 5,
					"collisionWidth": 10
				},
				"Diamond": {
					"large": {
						"id": "largeDiamond",
						"path": "assets/Scene/diamondLarge.png"
					},
					"medium": {
						"id": "mediumDiamond",
						"path": "assets/Scene/diamondMedium.png"
					},
					"small": {
						"id": "smallDiamond",
						"path": "assets/Scene/diamondSmall.png"
					},
					"rows": 1,
					"cols": 10,
					"frameInterval": 64,
					"numSmall": 10,
					"numMedium": 10,
					"numLarge": 10
				},
				"woodenCrate": {
					"id": "woodenCrate",
					"path": "assets/Scene/WoodenCrate.png",
					"width": 23,
					"height": 22
				},
				"nameLabel": {
					"id": "name",
					"path": "assets/Buttons/name.png",
					"width": 400,
					"height": 200
				}
			},
			"animations": {
				"torchGuy": {
					"idle": {
						"name": "idle",
						"row": 1,
						"rowSpan": 1,
						"startPos": 0,
						"endPos": 3
					},
					"idleLeft": {
						"name": "idleLeft",
						"row": 1,
						"rowSpan": 1,
						"startPos": 4,
						"endPos": 7
					},
					"walk": {
						"name": "walk",
						"row": 2,
						"rowSpan": 1,
						"startPos": 8,
						"endPos": 11
					},
					"walkLeft": {
						"name": "walkLeft",
						"row": 2,
						"rowSpan": 1,
						"startPos": 12,
						"endPos": 15
					},
					"jump": {
						"name": "jump",
						"row": 3,
						"rowSpan": 1,
						"startPos": 16,
						"endPos": 17
					},
					"jumpLeft": {
						"name": "jumpLeft",
						"row": 3,
						"rowSpan": 1,
						"startPos": 18,
						"endPos": 19
					},
					"run": {
						"name": "run",
						"row": 3,
						"rowSpan": 2,
						"startPos": 20,
						"endPos": 27
					},
					"runLeft": {
						"name": "runLeft",
						"row": 4,
						"rowSpan": 2,
						"startPos": 28,
						"endPos": 35
					}
				},
				"nemesis": {
					"idle": {
						"name": "idle",
						"row": 1,
						"rowSpan": 1,
						"startPos": 0,
						"endPos": 3
					},
					"idleLeft": {
						"name": "idleLeft",
						"row": 1,
						"rowSpan": 1,
						"startPos": 4,
						"endPos": 7
					},
					"walk": {
						"name": "walk",
						"row": 2,
						"rowSpan": 1,
						"startPos": 8,
						"endPos": 11
					},
					"walkLeft": {
						"name": "walkLeft",
						"row": 2,
						"rowSpan": 1,
						"startPos": 12,
						"endPos": 15
					},
					"jump": {
						"name": "jump",
						"row": 3,
						"rowSpan": 1,
						"startPos": 16,
						"endPos": 17
					},
					"jumpLeft": {
						"name": "jumpLeft",
						"row": 3,
						"rowSpan": 1,
						"startPos": 18,
						"endPos": 19
					},
					"run": {
						"name": "run",
						"row": 3,
						"rowSpan": 2,
						"startPos": 20,
						"endPos": 27
					},
					"runLeft": {
						"name": "runLeft",
						"row": 4,
						"rowSpan": 2,
						"startPos": 28,
						"endPos": 35
					},
					"attack": {
						"name": "attack",
						"row": 5,
						"rowSpan": 1,
						"startPos": 36,
						"endPos": 37
					},
					"attackLeft": {
						"name": "attackLeft",
						"row": 5,
						"rowSpan": 1,
						"startPos": 38,
						"endPos": 39
					}
				},
				"waterfallCliff": {
					"waterfall_torch": {
						"name": "wFall_tFlicker",
						"row": 1,
						"rowSpan": 1,
						"startPos": 0,
						"endPos": 3
					}
				},
				"diamond": {
					"diamond": {
						"name": "diamond_flash",
						"row": 1,
						"rowSpan": 1,
						"startPos": 0,
						"endPos": 9
					}
				},
				"bullet": {
					"bullet_fire": {
						"name": "bullet_fire",
						"row": 1,
						"rowSpan": 1,
						"startPos": 0,
						"endPos": 2
					},
					"bullet_fire_left": {
						"name": "bullet_fire_left",
						"row": 2,
						"rowSpan": 1,
						"startPos": 3,
						"endPos": 5
					}
				}
			}
		},
		"menuState": {
			"world": {
				"width": 1000,
				"height": 480
			},
			"worlds": {
				"SkyMountains": {
					"factor": 1,
					"width": 1000,
					"height": 480
				},
				"Platforms": {
					"factor": 1,
					"width": 1000,
					"height": 480
				}
			},
			"animatedWorlds":{
				"WaterfallCliff": {
					"factor": 1,
					"width": 1000,
					"height": 480,
					"frameInterval": 128
				}
			},
			"gameObjects": {
				"PlayButton": {
					"name": "PlayButton",
					"posX": 100.0,
					"posY": 400.0,
					"width": 200,
					"height": 52
				},
				"ExitButton": {
					"name": "ExitButton",
					"posX": 700.0,
					"posY": 400.0,
					"width": 200,
					"height": 52
				},
				"TorchGuy": {
					"name": "TorchGuy",
					"posX": 800.0,
					"posY": 300.0,
					"velX": 1.0,
					"velY": 1.0,
					"width": 64,
					"height": 64,
					"flipped": true,
					"frameInterval": 64
				},
				"Nemesis": {
					"name": "Nemesis",
					"posX": 500.0,
					"posY": 300.0,
					"velX": 1.0,
					"velY": 0.0,
					"width": 64,
					"height": 64,
					"flipped": false,
					"frameInterval": 64
				}
			},
			"textures": {
				"playButton": {
					"id": "playButton",
					"name": "pButton",
					"path": "assets/Buttons/playButton.png",
					"numFrames": 3
				},
				"exitButton": {
					"id": "exitButton",
					"name": "eButton",
					"path": "assets/Buttons/exitButton.png",
					"numFrames": 3
				},
				"skyMountains": {
					"id": "background",
					"path": "assets/Scene/background.png"
				},
				"waterfallCliff": {
					"id": "midground",
					"path": "assets/Scene/midground.png",
					"rows": 1,
					"cols": 4
				},
				"platforms": {
					"id": "foreground",
					"path": "assets/Scene/menu_foreground.png"
				}
			},
			"animations": {
				"waterfallCliff": {
					"waterfall_torch": {
						"name": "wFall_tFlicker",
						"row": 1,
						"rowSpan": 1,
						"startPos": 0,
						"endPos": 3
					}
				}
			}
		},
		"pauseState": {
			"gameObjects": {
				"MenuButton": {
					"name": "MenuButton",
					"posX": 200.0,
					"posY": 100.0,
					"width": 200,
					"height": 52
				},
				"ResumeButton": {
					"name": "ResumeButton",
					"posX": 200.0,
					"posY": 300.0,
					"width": 200,
					"height": 52
				}
			},
			"textures": {
				"menuButton": {
					"id": "menuButton",
					"name": "mButton",
					"path": "assets/Buttons/mainMenuButton.png",
					"numFrames": 3
				},
				"resumeButton": {
					"id": "resumeButton",
					"name": "rButton",
					"path": "assets/Buttons/resumeButton.png",
					"numFrames": 3
				}
			}
		},
		"gameOverState": {
			"messages": {
				"width": 400,
				"height": 200
			},
			"textures": {
				"gameOverText": {
					"id": "gameOverText",
					"name": "gOverText",
					"path": "assets/Buttons/gameOverText.png"
				},
				"youWonText": {
					"id": "youWonText",
					"name": "yWonText",
					"path": "assets/Buttons/youWonText.png"
				}
			}
		}
	}
}